|\     /|(  ___  )|\     /|  (  ____ \(  ___  )|\     /|(  ____ \(  __  \ 
( \   / )| (   ) || )   ( |  | (    \/| (   ) || )   ( || (    \/| (  \  )
 \ (_) / | |   | || |   | |  | (_____ | (___) || |   | || (__    | |   ) |
  \   /  | |   | || |   | |  (_____  )|  ___  |( (   ) )|  __)   | |   | |
   ) (   | |   | || |   | |        ) || (   ) | \ \_/ / | (      | |   ) |
   | |   | (___) || (___) |  /\____) || )   ( |  \   /  | (____/\| (__/  )
   \_/   (_______)(_______)  \_______)|/     \|   \_/   (_______/(______/ 

                       _________          _______ 
                       \__   __/|\     /|(  ____ \
                          ) (   | )   ( || (    \/
                          | |   | (___) || (__    
                          | |   |  ___  ||  __)   
                          | |   | (   ) || (      
                          | |   | )   ( || (____/\
                          )_(   |/     \|(_______/
                           
 _______  _______  _        _       _________ _        ______   _ 
(       )(  ___  )( (    /|| \    /\\__   __/( (    /|(  __  \ ( )
| () () || (   ) ||  \  ( ||  \  / /   ) (   |  \  ( || (  \  )| |
| || || || (___) ||   \ | ||  (_/ /    | |   |   \ | || |   ) || |
| |(_)| ||  ___  || (\ \) ||   _ (     | |   | (\ \) || |   | || |
| |   | || (   ) || | \   ||  ( \ \    | |   | | \   || |   ) |(_)
| )   ( || )   ( || )  \  ||  /  \ \___) (___| )  \  || (__/  ) _ 
|/     \||/     \||/    )_)|_/    \/\_______/|/    )_)(______/ (_)
                                                                  