                               __                              
                              /\ \      __                     
      ___ ___      __      ___\ \ \___ /\_\    ___      __     
     /' __` __`\  /'__`\   /'___\ \  _ `\/\ \ /' _ `\  /'__`\   
       /\ \/\ \/\ \/\ \L\.\_/\ \__/\ \ \ \ \ \ \/\ \/\ \/\ \L\.\_ 
       \ \_\ \_\ \_\ \__/.\_\ \____\\ \_\ \_\ \_\ \_\ \_\ \__/.\_\
        \/_/\/_/\/_/\/__/\/_/\/____/ \/_/\/_/\/_/\/_/\/_/\/__/\/_/
                                                                    
                                                                     
                                     __   __     
                                    /\ \ /\ \    
                                 __ \ `\`\/'/'   
                               /'__`\`\/ > <     
                              /\  __/   \/'/\`\  
                              \ \____\  /\_\\ \_\
                               \/____/  \/_/ \/_/
