_______________________________DIARY_______________________________________

Tag 325

Irgendwie habe ich das Gefuehl Monika und Amanda haben irgendein Problem
miteinander, staendig bekommen sie sich wegen Kleinigkeiten in die Haare.
Zu allem Ueberfluss hat Paula nun doch Metastasen, die nicht aufhoeren zu
wuchern. Ich glaube sie wird es nicht mehr allzu lange machen.

___________________________________________________________________________