_________          _______    _______  _______ _________ _______  _       
\__   __/|\     /|(  ____ \  (  ____ )(  ____ \\__   __/(  ____ \( (    /|
   ) (   | )   ( || (    \/  | (    )|| (    \/   ) (   | (    \/|  \  ( |
   | |   | (___) || (__      | (____)|| (__       | |   | |      |   \ | |
   | |   |  ___  ||  __)     |     __)|  __)      | |   | | ____ | (\ \) |
   | |   | (   ) || (        | (\ (   | (         | |   | | \_  )| | \   |
   | |   | )   ( || (____/\  | ) \ \__| (____/\___) (___| (___) || )  \  |
   )_(   |/     \|(_______/  |/   \__/(_______/\_______/(_______)|/    )_)
                                                                          
 _______  _______    _______  _______           _______ _________ _______ 
(  ___  )(  ____ \  (  ____ \(  ____ )|\     /|(  ____ )\__   __/(  ___  )
| (   ) || (    \/  | (    \/| (    )|( \   / )| (    )|   ) (   | (   ) |
| |   | || (__      | |      | (____)| \ (_) / | (____)|   | |   | (___) |
| |   | ||  __)     | |      |     __)  \   /  |  _____)   | |   |  ___  |
| |   | || (        | |      | (\ (      ) (   | (         | |   | (   ) |
| (___) || )        | (____/\| ) \ \__   | |   | )         | |   | )   ( |
(_______)|/         (_______/|/   \__/   \_/   |/          )_(   |/     \|

 _______ _________ _______  _______ _________ _______ 
(  ____ \\__   __/(  ___  )(  ____ )\__   __/(  ____ \
| (    \/   ) (   | (   ) || (    )|   ) (   | (    \/
| (_____    | |   | (___) || (____)|   | |   | (_____ 
(_____  )   | |   |  ___  ||     __)   | |   (_____  )
      ) |   | |   | (   ) || (\ (      | |         ) |
/\____) |   | |   | )   ( || ) \ \__   | |   /\____) |
\_______)   )_(   |/     \||/   \__/   )_(   \_______)
                                                      
_________ _______  ______   _______          
\__   __/(  ___  )(  __  \ (  ___  )|\     /|
   ) (   | (   ) || (  \  )| (   ) |( \   / )
   | |   | |   | || |   ) || (___) | \ (_) / 
   | |   | |   | || |   | ||  ___  |  \   /  
   | |   | |   | || |   ) || (   ) |   ) (   
   | |   | (___) || (__/  )| )   ( |   | |   
   )_(   (_______)(______/ |/     \|   \_/   
                                          
                                             