
___________________________________________________________________________

             _SSDX_10_rezeptur_A.C.C.I.D.
         /////////////////////////////////////////////
--------------------------------------------------------------------

     A5H1610 (Loesung)

     A9C7H6O (Loesung)

     A10C14N (Loesung)

     die Substanz sollte jetzt eine gelbe Farbe bekommen haben.

    

     Viel Spass im Schlumpfenland. Gargamel.
___________________________________________________________________________