
___________________________________________________________________________

             _SSDX_3_rezeptur_A.W.A.K.E._3_2
         /////////////////////////////////////////////
--------------------------------------------------------------------

     C6H12O6 (Loesung)

     C8H10N4O2 (Loesung)

     C10H14N2 (Loesung)

     die Substanz sollte jetzt eine violette Farbe bekommen haben.

     C9H13N (Pulver)


     wenns jetzt nicht aufsteht ists tot.
___________________________________________________________________________