_______________________________DIARY_______________________________________

Tag 340

Helga wird immer unwirscher. Aber ich weiß, ich stehe kurz davor, ich 
habe nur etwas übersehen, irgendetwas… Ich spüre die Anspannung im 
Labor. Jetzt muss etwas passieren. Ich setze meine Hoffnung auf Ronny. Irgendetwas ist anders mit ihm.

___________________________________________________________________________